The College Scorecard
…
Private Non-Prof, Low Pop, High Cost (A), High Family Income, Low 20s, Large City/Suburb

Private For-Prof, Low Pop, High Cost (A), Low Family Income, Upper 20s, Large City/Suburb

Private For-Prof, Low Pop, High Cost (P), Low Family Income, Mid 20s, Large City/Suburb

Public/Private For-Prof, Low Pop, Mid Cost (P), Low Family Income, Upper 20s, Large City/Suburb

There are some interesting take-aways from this already. It is pretty unsurprising that the majority of public schools are in cluster 1, where student population, cost, and family income are all around average, and cluster 7, where students are joining for-profit schools to try and gain new skills in their mid-20s since their incomes are on the lower side. Cluster 1 is also not dominated by any one locale, though the most are small towns or cities. Clusters 3, 4, and 5 also seem to indicate that the students going to schools in large locales are younger, have higher family incomes than the others, but still have different preferences on population and cost of their school.

Finally, we can append the clusters to the end of the original data. Earlier in the process I made a table called schoolCluster2014, to which I can now assign clusters. Now if a student has a school in mind, for example Drexel University, they can do a lookup for that school and see what cluster it is in. In this case, Drexel is in cluster 4.

Cluster 4

## # A tibble: 374 x 10
##                                INSTNM STABBR CONTROL LOCALE  UGDS COSTT4_A
##                                 <chr>  <chr>   <int>  <int> <chr>    <chr>
##  1        Birmingham Southern College     AL       2     12  1180    45162
##  2                 Samford University     AL       2     21  3033    40900
##  3                Spring Hill College     AL       2     12  1215    44970
##  4                    Hendrix College     AR       2     13  1322    52536
##  5       Art Center College of Design     CA       2     12  1814    57738
##  6                   Biola University     CA       2     21  4364    46162
##  7 California Institute of Technology     CA       2     12   983    58755
##  8     California Lutheran University     CA       2     12  2799    50425
##  9   California Institute of the Arts     CA       2     21   946    57704
## 10                 Chapman University     CA       2     12  6211    58948
## # ... with 364 more rows, and 4 more variables: COSTT4_P <chr>,
## #   FAMINC <chr>, AGE_ENTRY <chr>, CLUSTER <int>
…
