…
> vanhouten_df <- refine_df %>% filter(grepl('van', company))

> refine_df %>% filter(grepl('uni', company))
# A tibble: 4 x 6
   company `Product code / number`        address   city         country             name
     <chr>                   <chr>          <chr>  <chr>           <chr>            <chr>
1  unilver                     x-3 Jourestraat 23 arnhem the netherlands  mevr l.  gokken
2 unilever                     q-4 Jourestraat 24 arnhem the netherlands mevr l.  stokken
3 unilever                     q-6 Jourestraat 25 arnhem the netherlands  mevr l.  rokken
4 unilever                     q-8 Jourestraat 26 arnhem the netherlands  mevr l.  rokken

> unilever_df <- refine_df %>% filter(grepl('uni', company)) %>% mutate(company = "unilever")

> bind_rows(phillips_df, akzo_df, unilever_df, vanhouten_df)
# A tibble: 25 x 6
    company `Product code / number`             address   city         country            name
      <chr>                   <chr>               <chr>  <chr>           <chr>           <chr>
 1 phillips                     p-5 Groningensingel 147 arnhem the netherlands   dhr p. jansen
 2 phillips                    p-43 Groningensingel 148 arnhem the netherlands   dhr p. hansen
 3 phillips                     x-3 Groningensingel 149 arnhem the netherlands   dhr j. Gansen
 4 phillips                    x-34 Groningensingel 150 arnhem the netherlands   dhr p. mansen
 5 phillips                    x-12 Groningensingel 151 arnhem the netherlands  dhr p. fransen
 6 phillips                    p-23 Groningensingel 152 arnhem the netherlands dhr p. franssen
 7 phillips                    p-56   Delfzijlstraat 54 arnhem the netherlands mevr l.  mokken
 8 phillips                    v-67   Delfzijlstraat 55 arnhem the netherlands mevr l.  mokken
 9 phillips                    v-21   Delfzijlstraat 56 arnhem the netherlands mevr l.  mokken
10     akzo                    v-43   Leeuwardenweg 178 arnhem the netherlands   dhr p. bansen
# ... with 15 more rows

> refine_df <- bind_rows(phillips_df, akzo_df, unilever_df, vanhouten_df)
> View(refine_df)

> library(tidyr)

> refine_df %>% separate(`Product code / number`, c("product_code", "product_number"), sep = "-")
# A tibble: 25 x 7
    company product_code product_number             address   city         country
 *    <chr>        <chr>          <chr>               <chr>  <chr>           <chr>
 1 phillips            p              5 Groningensingel 147 arnhem the netherlands
 2 phillips            p             43 Groningensingel 148 arnhem the netherlands
 3 phillips            x              3 Groningensingel 149 arnhem the netherlands
 4 phillips            x             34 Groningensingel 150 arnhem the netherlands
 5 phillips            x             12 Groningensingel 151 arnhem the netherlands
 6 phillips            p             23 Groningensingel 152 arnhem the netherlands
 7 phillips            p             56   Delfzijlstraat 54 arnhem the netherlands
 8 phillips            v             67   Delfzijlstraat 55 arnhem the netherlands
 9 phillips            v             21   Delfzijlstraat 56 arnhem the netherlands
10     akzo            v             43   Leeuwardenweg 178 arnhem the netherlands
# ... with 15 more rows, and 1 more variables: name <chr>
…
